0	0	0	0	0	0	0	0	0	0		0	0	0	0	0	0	
19	0	0	0	0	0	0	1	0	0		0	0	0	0	0	0	
20	0	0	0	0	0	0	1	0	0		0	0	0	0	0	0	
21	0	0	0	0	0	0	1	0	0		0	0	0	0	0	0	
22	0	0	0	0	0	0	1	0	0		0	0	0	0	0	0	

8	0	0	0	0	0	0	0	0	0		0	0	0	0	0	0	

9	0	0	0	0	0	0	1	0	0		0	0	0	0	0	0	
10	0	0	0	0	0	0	1	0	0		0	0	0	0	0	0	

27	0	0	0	0	0	0	1	0	0		0	0	0	0	0	0	

11	0	0	0	0	0	0	0	0	0		0	0	0	0	0	0	
14	0	0	0	0	0	0	0	0	0		0	0	0	0	0	0	
17	0	0	0	0	0	0	0	0	0		0	0	0	0	0	0	
25	0	0	0	0	0	0	0	0	0		0	0	0	0	0	0	